…
4. We know that some days of the year are “special”, and fewer people than usual fly on them. How might you represent that data as a data frame? What would be the primary keys of that table? How would it connect to the existing tables?
    - You could create a data frame with the special days then this can connect to flights 
    
## 13.3.1 Exercises 
1. Add a surrogate key to flights

```r
flights %>%
  arrange(year, month, day, sched_dep_time, carrier, flight) %>%
  mutate(flight_id = row_number()) 
```

```
## # A tibble: 336,776 x 20
##     year month   day dep_time sched_dep_time dep_delay arr_time
##    <int> <int> <int>    <int>          <int>     <dbl>    <int>
##  1  2013     1     1      517            515         2      830
##  2  2013     1     1      533            529         4      850
##  3  2013     1     1      542            540         2      923
##  4  2013     1     1      544            545        -1     1004
##  5  2013     1     1      554            558        -4      740
##  6  2013     1     1      559            559         0      702
##  7  2013     1     1      558            600        -2      753
##  8  2013     1     1      559            600        -1      941
##  9  2013     1     1      558            600        -2      849
## 10  2013     1     1      558            600        -2      853
## # … with 336,766 more rows, and 13 more variables: sched_arr_time <int>,
## #   arr_delay <dbl>, carrier <chr>, flight <int>, tailnum <chr>,
## #   origin <chr>, dest <chr>, air_time <dbl>, distance <dbl>, hour <dbl>,
## #   minute <dbl>, time_hour <dttm>, flight_id <int>
```
…
```r
flights %>%
  filter(!is.na(tailnum)) %>%
  group_by(tailnum) %>%
  mutate(n = n()) %>%
  filter(n >= 100)
```

```
## # A tibble: 228,390 x 20
## # Groups:   tailnum [1,217]
##     year month   day dep_time sched_dep_time dep_delay arr_time
##    <int> <int> <int>    <int>          <int>     <dbl>    <int>
##  1  2013     1     1      517            515         2      830
##  2  2013     1     1      533            529         4      850
##  3  2013     1     1      544            545        -1     1004
##  4  2013     1     1      554            558        -4      740
##  5  2013     1     1      555            600        -5      913
##  6  2013     1     1      557            600        -3      709
##  7  2013     1     1      557            600        -3      838
##  8  2013     1     1      558            600        -2      849
##  9  2013     1     1      558            600        -2      853
## 10  2013     1     1      558            600        -2      923
## # … with 228,380 more rows, and 13 more variables: sched_arr_time <int>,
## #   arr_delay <dbl>, carrier <chr>, flight <int>, tailnum <chr>,
## #   origin <chr>, dest <chr>, air_time <dbl>, distance <dbl>, hour <dbl>,
## #   minute <dbl>, time_hour <dttm>, n <int>
```
…
